Organized
…
library(readr)
T2i <- read_csv("DATA/T2i.csv")

## Rows: 261 Columns: 4
## ── Column specification ────────────────────────────────────────────────────────
## Delimiter: ","
## dbl (4): Mother_age, Count_Non_survivors, Count_Total_Birth, Birth_weight
## 
## ℹ Use `spec()` to retrieve the full column specification for this data.
## ℹ Specify the column types or set `show_col_types = FALSE` to quiet this message.

T2i

## # A tibble: 261 × 4
##    Mother_age Count_Non_survivors Count_Total_Birth Birth_weight
##         <dbl>               <dbl>             <dbl>        <dbl>
##  1         16                   0                 1          9.5
##  2         16                   0                 2          9  
##  3         16                   0                 1          8.5
##  4         16                   0                 3          8  
##  5         16                   0                 7          7.5
##  6         16                   0                 2          7  
##  7         16                   0                 4          6.5
##  8         16                   0                 2          6  
##  9         16                   0                 2          5.5
## 10         16                   0                 1          5  
## # … with 251 more rows
…
